{
    "AWSTemplateFormatVersion": "2010-09-09",
    "Metadata": {
        "AWS::CloudFormation::Designer": {
            "07de0c79-4edf-4545-b3aa-573e4ab7ce32": {
                "size": {
                    "width": 60,
                    "height": 60
                },
                "position": {
                    "x": 98,
                    "y": 133
                },
                "z": 0
            },
            "db22f872-767a-4499-8e9b-ddbf46ae0b65": {
                "size": {
                    "width": 60,
                    "height": 60
                },
                "position": {
                    "x": 341,
                    "y": 70
                },
                "z": 0
            }
        }
    },
    "Resources": {
        "IAMUser1": {
            "Type": "AWS::IAM::User",
            "Properties": {
                "LoginProfile" : {
                    "Password" : "String",
                    "PasswordResetRequired" : false
                },
                "UserName" : "ShiftLeftUser",
                "Groups" : [{
                    "Ref": "MyGroup"
                }]
            },
            "Metadata": {
                "AWS::CloudFormation::Designer": {
                    "id": "07de0c79-4edf-4545-b3aa-573e4ab7ce32"
                }
            }
        },
        "IAMGroup1": {
            "Type": "AWS:IAM::Group",
            "Properties" :{
                "GroupName": "MyGroup",
                "Policies" : [{
                    "PolicyName" : "MyPolicy",
                    "PolicyDocument" : {
                        "Version": "2012-10-17",
                        "Statement": [
                            {
                                "Effect": "Allow",
                                "Action": "*",
                                "Resource": "*"
                            }
                        ]
                    }
                }]
            }
        },
        "IAMAcessKey1": {
            "Type": "AWS::IAM::AccessKey",
            "Properties": {
                "Status" : "Active",
                "UserName" : "ShiftLeftUser"
            },
            "Metadata": {
                "AWS::CloudFormation::Designer": {
                    "id": "db22f872-767a-4499-8e9b-ddbf46ae0b65"
                }
            }
        },"IAMAcessKey2": {
            "Type": "AWS::IAM::AccessKey",
            "Properties": {
                "Status" : "Active",
                "UserName" : "ShiftLeftUser"
            },
            "Metadata": {
                "AWS::CloudFormation::Designer": {
                    "id": "db22f872-767a-4499-8e9b-ddbf46ae0b65"
                }
            }
        }
    }
}